{
	"title": "Nombres de las tablas de SuperAndes",
	"unidadPersistencia": "SuperAndes",
	"tablas":
	[
		“superandes_sequence",
		“RE_PROVEEDOR",
		“RE_SUCURSAL",
		“RE_BODEGA",
		“RE_ESTANTE",
		“RE_ORDENPEDIDO",
		“RE_INFOPRODUCTO",
		“RE_PRODUCTO",
		“RE_TIPOPRODUCTO",
		“RE_CATEGORIAPRODUCTO",
		“RE_PRODUCTOSUMINISTRADO",
		“RE_PRODUCTOSDELPROVEEDOR",
		“RE_PROMOCION",
		“RE_PROMOCIONDESCUENTO",
		“RE_PROMOCIONDOSPRODUCTOS",
		“RE_PROMOCIONPAGUE1LLEVEELSEGUNDO",
		“RE_PROMOCIONPAGUENLLEVEMUNID",
		“RE_PROMOCIONPAGUEXLLEVEYCANT",
		“RE_CLIENTE",
		“RE_CLIENTENATURAL",
		“RE_CLIENTEEMPRESA",
		“RE_TRANSACCIONCLIENTE",
		“RE_COMPRA",
		“RE_USUARIO"
	]
}