{
	"title": "Nombres de las tablas de SuperAndes Uniandes para pruebas de la aplicación cuando la base de datos no existe o está caida",
	"unidadPersistencia": "SuperAndesErrorDS",
	"tablas":
	[
		“superandes_sequence",
		“X_PROVEEDOR",
		“X_SUCURSAL",
		“X_BODEGA",
		“X_ESTANTE",
		“X_ORDENPEDIDO",
		“X_INFOPRODUCTO",
		“X_PRODUCTO",
		“X_TIPOPRODUCTO",
		“X_CATEGORIAPRODUCTO",
		“X_PRODUCTOSUMINISTRADO",
		“X_PRODUCTOSDELPROVEEDOR",
		“X_PROMOCION",
		“X_PROMOCIONDESCUENTO",
		“X_PROMOCIONDOSPRODUCTOS",
		“X_PROMOCIONPAGUE1LLEVEELSEGUNDO",
		“X_PROMOCIONPAGUENLLEVEMUNID",
		“X_PROMOCIONPAGUEXLLEVEYCANT",
		“X_CLIENTE",
		“X_CLIENTENATURAL",
		“X_CLIENTEEMPRESA",
		“X_TRANSACCIONCLIENTE",
		“X_COMPRA",
		“X_USUARIO"
	]
}